0

"BhulaDungaFirstLook": 334,
"COVID19": 175,
"coronavirus": 168,
"BhulaDungaWithSid": 116,
"iHeartAwards": 97,
"StPatricksDay": 65,
"BestMusicVideo": 57,
"Coronavirus": 49,
"QuarantineLife": 40,
"BestLyrics": 38,

1

"BhulaDungaFirstLook": 275,
"coronavirus": 217,
"BhulaDungaWithSid": 210,
"COVID19": 184,
"iHeartAwards": 96,
"StPatricksDay": 90,
"Coronavirus": 83,
"COVID2019": 58,
"SUHOARCHIVE18": 48,
"BestLyrics": 47,

2

"coronavirus": 86,
"BhulaDungaFirstLook": 79,
"BhulaDungaWithSid": 56,
"COVID19": 55,
"SUHOARCHIVE18": 32,
"Coronavirus": 29,
"Panthers": 25,
"COVID2019": 24,
"SELF_PORTRAIT": 23,
"ONEUS": 21,

3

"BhulaDungaFirstLook": 24,
"coronavirus": 7,
"BTSWATCHPARTY": 7,
"SUHOARCHIVE18": 7,
"COVID19": 6,
"BhulaDungaWithSid": 5,
"iHeartAwards": 5,
"SUHO": 4,
"ONEUS": 4,
"Coronavirus": 4,

4

"BhulaDungaFirstLook": 13,
"SUHO": 6,
"SUHOARCHIVE18": 6,
"SELF_PORTRAIT": 6,
"BhulaDungaWithSid": 5,
"coronavirus": 4,
"김준면": 4,
"수호": 4,
"Coronavirus": 4,
"COVID19": 3,

5

"BhulaDungaFirstLook": 14,
"coronavirus": 9,
"Coronavirus": 7,
"SUHOARCHIVE18": 7,
"COVID19": 6,
"BhulaDungaWithSid": 5,
"SELF_PORTRAIT": 5,
"Panthers": 3,
"COVID": 3,
"StPatricksDay": 3,

6

"StPatricksDay": 2,
"SidharthShukla": 2,
"Master": 2,
"BhulaDungaFirstLook": 2,
"coronavirus": 2,
"TheCall": 1,
"Coronavirus": 1,
"TrumpVirus": 1,
"HubbleClassic": 1,
"kidsathome": 1,

7

"BhulaDungaFirstLook": 6,
"coronavirus": 5,
"StPatricksDay": 4,
"COVID19": 3,
"BhulaDungaWithSid": 3,
"SUHOARCHIVE18": 3,
"SEUNGHEE": 2,
"followback": 2,
"stocks": 2,
"covidindia": 2,

8

"BhulaDungaFirstLook": 557,
"BhulaDungaWithSid": 188,
"iHeartAwards": 111,
"SUHOARCHIVE18": 100,
"SELF_PORTRAIT": 70,
"StPatricksDay": 69,
"BestLyrics": 62,
"COVID19": 59,
"QuarantineLife": 58,
"stayhomechallenge": 54,

9

"iHeartAwards": 97,
"StPatricksDay": 62,
"BestMusicVideo": 61,
"QuarantineLife": 59,
"BoyWithLuv": 55,
"SUHOARCHIVE18": 55,
"BestLyrics": 50,
"CoronavirusOutbreak": 43,
"10000Hours": 41,
"방탄소년단": 37,

